…
------------------------------------------------------------------------

## PheWAS — one variant across all traits

``` r

# APOE ε4 proxy: near-perfect LD with rs429358
pw <- phewas(db, "19:45412079_C_T")
nrow(pw)
#> [1] 3203
pw
#> # A tibble: 3,203 × 9
#>    variant_id     trait_id     z     beta      se     pval    eaf      n imputed
#>    <chr>          <chr>    <dbl>    <dbl>   <dbl>    <dbl>  <dbl>  <dbl> <lgl>  
#>  1 19:45412079_C… ebi-a-G… -6.5  -2.96e-1 0.0455  8.03e-11 0.0796 3.30e3 FALSE  
#>  2 19:45412079_C… ebi-a-G…  0.51  4.03e-2 0.0790  6.10e- 1 0.0796 1.09e3 FALSE  
#>  3 19:45412079_C… ebi-a-G…  1.89  3.07e-2 0.0163  5.88e- 2 0.0796 2.58e4 FALSE  
#>  4 19:45412079_C… ebi-a-G… -0.56 -1.19e-2 0.0212  5.75e- 1 0.0796 1.51e4 FALSE  
#>  5 19:45412079_C… ebi-a-G…  1.64  2.98e-2 0.0182  1.01e- 1 0.0796 2.07e4 FALSE  
#>  6 19:45412079_C… ebi-a-G…  0.64  8.75e-2 0.137   5.22e- 1 0.0796 3.65e2 FALSE  
#>  7 19:45412079_C… ebi-a-G…  0.82  5.47e-2 0.0667  4.12e- 1 0.0796 1.53e3 FALSE  
#>  8 19:45412079_C… ebi-a-G… -0.14 -8.69e-4 0.00621 8.89e- 1 0.0796 1.77e5 FALSE  
#>  9 19:45412079_C… ebi-a-G… -0.54 -3.35e-3 0.00620 5.89e- 1 0.0796 1.78e5 FALSE  
#> 10 19:45412079_C… ebi-a-G… -0.44 -2.73e-3 0.00621 6.60e- 1 0.0796 1.77e5 FALSE  
#> # ℹ 3,193 more rows
```
…
